scripts/ClockDivider.vcd
$date
	Wed Jul 30 17:09:26 2025
$end
$version
	ModelSim Version 2020.1
$end
$timescale
	1ps
$end

$scope module tb_ClockDivider $end
$var reg 1 ! clk_in $end
$var reg 1 " reset $end
$var reg 1 # passThrough $end
$var wire 1 $ clk_out $end

$scope module uut $end
$var parameter 32 % DIV $end
$var wire 1 & clk_in $end
$var wire 1 ' reset $end
$var wire 1 ( passThrough $end
$var reg 1 ) clk_out $end
$var reg 32 * counter [31:0] $end
$upscope $end
$upscope $end
$enddefinitions $end
#0
$dumpvars
0!
1"
0#
0)
b0 *
b1010 %
0$
0(
1'
0&
$end
#5000
1!
1&
#10000
0"
0!
0'
0&
#15000
1!
1&
b1 *
#20000
0!
0&
#25000
1!
1&
b10 *
#30000
0!
0&
#35000
1!
1&
b11 *
#40000
0!
0&
#45000
1!
1&
b100 *
#50000
0!
0&
#55000
1!
1&
b101 *
#60000
0!
0&
#65000
1!
1&
b110 *
#70000
0!
0&
#75000
1!
1&
b111 *
#80000
0!
0&
#85000
1!
1&
b1000 *
#90000
0!
0&
#95000
1!
1&
b1001 *
#100000
0!
0&
#105000
1!
1&
1)
b0 *
1$
#110000
1#
0!
1(
0&
0)
0$
#115000
1!
1&
1)
1$
#120000
0#
0!
0(
0&
#125000
1!
1&
b1 *
#130000
0!
0&
#135000
1!
1&
b10 *
#140000
0!
0&
#145000
1!
1&
b11 *
#150000
0!
0&
#155000
1!
1&
b100 *
#160000
0!
0&
#165000
1!
1&
b101 *
#170000
0!
0&
#175000
1!
1&
b110 *
#180000
0!
0&
#185000
1!
1&
b111 *
#190000
0!
0&
#195000
1!
1&
b1000 *
#200000
0!
0&
#205000
1!
1&
b1001 *
#210000
0!
0&
#215000
1!
1&
0)
b0 *
0$
